{
  "tag": "world",
  "name": "World Tiles",
  "filename": "data/tilesets/worldTiles.png",
  "tileHeight": 32,
  "tileWidth": 32,
  "tiles":
    [
      [{"id": "floor"}, {"id": "wall"}, {"id": "stairs"}]
    ]
}
